module github.com/Kengathua/jwt-authentication

go 1.18

require (
	github.com/gofiber/fiber/v2 v2.41.0
	github.com/gofiber/jwt/v3 v3.3.4
	github.com/golang-jwt/jwt/v4 v4.4.3
)

require (
	github.com/andybalholm/brotli v1.0.4 // indirect
	github.com/klauspost/compress v1.15.14 // indirect
	github.com/mattn/go-colorable v0.1.13 // indirect
	github.com/mattn/go-isatty v0.0.17 // indirect
	github.com/mattn/go-runewidth v0.0.14 // indirect
	github.com/rivo/uniseg v0.4.3 // indirect
	github.com/valyala/bytebufferpool v1.0.0 // indirect
	github.com/valyala/fasthttp v1.43.0 // indirect
	github.com/valyala/tcplisten v1.0.0 // indirect
	golang.org/x/sys v0.4.0 // indirect
)
